794795 312651 509
804584 769588 468
650187 156106 509
132269 42373 354
932920 957878 507
170741 935596 525
661986 562066 509
412281 917517 525
853399 612216 525
622840 311566 470
167148 261079 443
760404 522170 509
288562 561884 470
62825 94811 351
66920 29319 340
184446 709523 509
557948 123195 470
245953 970903 525
556026 563151 359
102674 168065 383
598361 340416 470
691604 206174 509
356704 49878 443
884531 397001 525
832465 249520 509
40684 250235 443
217175 944441 525
167228 976285 525
669540 777256 504
13839 891728 525
597260 172996 470
420707 137535 449
632344 260337 509
486115 188056 449
428947 991746 525
74359 679531 509
977009 604993 525
891087 709000 525
60460 1893 340
494276 359559 449
951484 674805 525
460872 21753 449
693026 134995 509
979234 259346 525
575724 259600 470
137123 452645 449
85417 368915 443
362844 785636 509
791881 776701 437
758472 468156 509
410655 969291 525
543501 356883 470
327633 513918 470
474124 435667 444
382790 456950 449
48863 915516 525
727372 340582 509
229867 180681 386
827176 665744 504
788608 267201 509
17346 107593 354
911994 891811 476
199794 615833 470
733907 278580 509
456613 691109 509
667677 983061 525
128851 732370 509
479356 590451 470
125110 514972 470
322081 528438 470
615506 960876 525
957402 22746 525
974859 909597 507
615433 670467 509
398988 537947 470
234119 509325 449
151639 890221 525
375998 585281 470
705241 603586 509
622446 641397 509
620342 60931 470
221474 101218 386
351232 451419 449
730100 717670 411
507762 581209 470
256976 205966 443
182664 691113 509
736238 517947 509
794274 162433 509
844716 629414 525
422934 896961 525
155926 92854 375
787385 763266 468
574294 846315 525
664436 359832 509
512294 298554 470
928222 587996 525
486707 547102 470
754885 722771 424
98303 725833 509
624634 272335 470
363809 638358 509
508590 538491 470
46025 46921 283
970008 549099 525
97801 407356 443
977094 116167 525
257811 606811 470
783678 297580 509
730179 231769 509
530292 207279 470
586066 634605 509
460465 489363 444
363494 551816 470
395984 336071 441
569632 986720 525
981959 660319 525
350582 309505 441
381941 39209 443
110934 97227 354
491726 845741 525
901270 85726 525
262059 977982 525
901382 633107 525
992542 587896 525
525232 258852 470
663758 174347 509
974966 827675 525
347975 569953 470
456326 694151 509
200745 48172 383
915965 326839 525
411581 50394 449
724877 482004 509
504001 481881 426
853490 934837 476
278760 960373 525
669916 429772 509
550658 545445 452
504242 74846 449
606239 985566 525
378780 727228 509
128854 218447 386
544486 256386 470
649456 263769 509
172339 450331 449
437364 18104 449
803089 505360 509
165199 302597 443
149716 262360 443
795653 891275 525
917909 823983 525
525590 619931 452
785623 96857 509
797953 709347 468
510637 590200 470
227321 513189 470
341982 394351 441
377424 348730 423
160940 242137 443
220953 201632 386
212529 302280 443
94462 177655 383
355978 268632 441
777528 978997 525
648895 731269 504
140893 542562 470
648295 43756 509
517254 530166 439
363698 374229 392
341921 84443 443
344412 471515 449
345759 898631 525
515508 194946 470
760359 120892 509
109242 22863 354
754094 965244 525
549698 17947 470
591134 424536 470
575923 313562 470
145640 616678 470
877701 193259 525
929037 265146 525
130265 308656 443
731237 295642 509
810642 345915 509
361717 186784 443
39884 478288 449
974621 871275 507
733523 600818 509
562534 422218 470
14082 929758 525
268709 299999 407
57594 6752 340
726198 71650 509
70778 701184 509
960294 514908 525
632976 789819 504
549970 505985 470
861986 626186 525
319854 680028 509
211588 527896 470
326771 109071 443
747695 743296 362
327109 311066 384
138045 329084 443
7407 366646 443
693168 310624 509
590687 170545 470
835686 581219 509
21250 655592 509
693325 326118 509
34166 129488 354
549387 948271 525
829459 428722 509
66047 647482 509
658490 619647 509
38935 512067 470
268345 668618 509
485783 33477 449
662769 303797 509
480767 520161 470
555103 569153 421
237444 209470 443
474251 795041 509
534490 458614 470
860637 564257 525
431319 928641 525
811537 689743 504
52607 400451 443
697756 481769 509
347986 667235 509
291983 683745 509
845355 813729 525
178302 894263 525
49238 579548 470
285215 606099 470
216272 283416 443
312871 897452 525
564863 645684 509
472761 604689 470
657427 560234 509
172268 211695 373
505705 860406 525
894520 940088 507
