527046 856139
866344 436949
165803 163366
174598 596264
181632 573800
772736 640777
335949 322100
851619 694492
749051 821955
379610 259715
445519 398839
979615 894834
200085 67906
703484 130604
540916 8334
904700 958327
490874 300471
731651 127509
29541 184890
352936 31315
896605 740997
549409 396119
825382 949619
339205 243676
425421 109389
183085 8177
250559 290615
201000 984859
936281 170532
868131 563831
665718 145383
513481 838834
669540 143624
775315 655045
705356 236587
570856 135027
237696 153279
365639 347346
771906 868697
781754 451004
21266 412865
765707 179525
74391 715305
219675 331303
726501 562195
142067 762913
574632 861989
552716 979497
387723 524749
720169 484101
851976 357561
337645 704697
989576 8921
299252 349502
427904 382481
573461 183896
996512 773713
570981 479453
281597 270966
961991 703791
369843 540720
136908 926749
733956 677668
860757 858269
392037 948147
49487 400154
871266 192610
130070 610053
672062 128490
761015 856724
505672 442877
272964 802195
605346 715370
222140 852201
916314 615707
590191 121973
752383 442319
879357 953146
186472 8365
834070 994923
669992 728599
55540 829630
233762 681516
982676 254979
902766 61024
55322 556849
312081 290345
804288 698068
881415 142370
255482 942646
27338 958527
885909 37773
124722 447308
11233 611367
366676 855589
332203 119744
498670 251602
477353 947355
419136 235938
300859 932144
310589 123264
654668 73940
35030 894508
464483 552596
635236 178434
79714 337780
285223 503144
362719 468983
243623 918189
761833 57662
874506 247355
912265 988702
936323 663223
294365 80360
38607 414894
659496 610197
689240 568067
811758 395424
738129 592754
765957 678942
373066 852985
545682 208708
674918 160645
742857 842410
275628 23824
400134 455413
820100 345569
125231 318352
428346 440307
924401 634548
605806 234082
717514 9821
821953 391937
830334 989789
457547 466945
269771 903295
114554 54420
56028 575520
854025 931654
462255 846230
610317 858866
741223 986916
932033 506784
960919 930000
990058 359743
39023 801997
872452 512970
631793 318819
27377 70509
257931 842484
731704 43896
87020 433205
220463 780807
356308 366023
685641 963369
281159 351896
884848 554272
266049 778130
677556 62871
633241 280943
458309 419165
555010 630824
499893 295167
188872 715140
248156 108099
733879 997428
724077 50835
51345 582563
715163 192852
50465 568671
917908 196902
579877 898021
738475 349229
926408 392367
795941 410370
278360 449409
758468 290349
417208 225088
908873 574472
389096 342022
276809 369541
410015 502305
268396 335606
671777 243494
995018 924847
980287 510139
271839 270668
86337 75599
195404 735436
126261 432195
68719 215390
762298 194770
260238 961155
83303 838688
823555 993771
883855 394520
153554 615527
163200 307170
38203 729866
631917 809502
171974 691257
757467 437094
852792 174651
231294 863085
319894 983382
910901 657928
839672 783800
307685 473256
518089 431222
432599 150024
995955 33004
735112 191741
755592 747221
277628 65922
696116 991231
523752 782731
915833 875033
378796 291348
309872 176353
161947 322183
593614 655791
90486 325878
806434 656978
259083 723277
579007 797618
337100 263952
656482 799901
875606 455968
790717 444201
327919 433257
385374 613460
418446 256591
853026 665455
609872 6126
34661 840358
743659 936455
920316 796755
194154 502140
35125 576125
395149 321201
292582 792875
967561 304584
367080 910638
625517 155270
391254 565921
173344 398055
168185 42693
6611 966855
921058 425218
716862 475465
40741 52278
45130 628419
647187 278615
38250 507531
953939 806625
134016 780190
79587 710673
649907 722219
534568 953912
790409 59532
925547 611988
996018 694115
963679 486405
958095 61950
438189 915951
602024 701875
987911 779456
579433 174923
314449 350075
957937 958075
711536 767965
475822 289076
489601 316297
564585 541812
406593 176080
637430 850774
300404 288241
487822 898414
230769 640998
863571 683458
984114 578430
321892 922594
347529 614197
253696 156493
265030 950841
966493 245771
749190 92286
850212 944225
347676 958571
280484 385081
219559 505326
211274 748267
565225 790767
327534 883293
521847 834355
446630 441633
158584 335240
146072 569298
80869 799831
459471 444809
