298 713 171
919 973 174
755 868 153
185 329 144
967 995 143
896 958 174
406 493 142
627 981 179
27 707 171
419 803 171
604 679 145
784 786 122
920 967 174
445 526 142
126 803 171
860 961 179
449 706 171
547 645 137
209 948 179
380 635 142
908 978 174
431 584 142
31 968 179
738 970 179
865 888 179
234 687 145
568 718 171
206 556 144
4 477 144
72 257 128
312 523 144
146 371 144
920 974 174
109 643 144
658 787 171
624 762 171
225 344 144
690 989 179
458 787 171
57 567 144
257 469 144
413 547 142
290 813 171
725 798 153
520 901 179
583 996 179
279 978 179
543 956 179
814 999 179
833 925 179
737 997 179
770 260 171
58 942 179
951 853 179
443 787 171
985 820 179
192 509 144
273 804 171
771 466 171
93 834 171
542 988 179
706 501 171
762 124 171
824 116 171
182 274 128
668 703 171
221 503 144
307 726 171
576 852 171
965 764 179
655 352 145
168 650 145
857 445 171
959 694 179
984 480 179
7276 928 262
9228 935 262
7615 6388 257
5137 7396 262
1342 1559 172
2925 3107 186
5215 3211 238
5810 5518 236
6853 5627 262
441 1175 182
1662 4808 238
1355 7071 262
8373 5642 262
9197 2228 262
2868 7374 262
9466 3283 262
6508 2179 262
9008 5510 262
5551 4984 205
7485 917 262
9086 9291 260
2303 3328 217
7484 5681 262
7010 7425 239
5942 9665 262
3471 9026 262
5918 22 238
4475 9321 262
6641 664 262
3737 8438 262
2198 8134 262
5842 5682 218
1483 9293 262
2375 88 183
6136 1130 238
9713 5767 262
4626 3661 238
1553 281 182
6543 917 262
3148 1510 217
3799 3835 176
6067 8936 262
772 1453 182
4060 5712 236
1552 5232 238
5839 389 238
2493 2913 191
2886 7554 262
6101 3527 238
3764 4525 215
8813 6182 257
3336 9042 262
8833 4202 262
5719 951 238
3609 5609 238
1664 1449 172
3654 874 217
4926 5598 236
446 4284 238
952 1558 182
2150 68 182
2602 5848 238
6213 44 262
5590 6616 262
9187 7921 252
2975 5753 238
9077 7091 252
4751 1264 238
320 4527 238
1519 3980 238
8936 4279 262
9018 9175 198
4207 6500 262
2671 9454 262
862 7806 262
2543 6106 238
8309 4985 262
7962 2186 262
86 6205 262
52 91 116
8995 376 262
8839 9204 247
8937 3160 262
8071 9250 247
5428 731 238
9396 5053 262
3276 6367 262
5264 9689 262
8730 3985 262
189 8900 262
402 9709 262
281 4335 238
1820 4611 238
7667 9123 252
6353 3449 262
3424 5227 238
789 8269 262
5162 1663 238
365 4555 238
4640 7207 262
22241 43879 324
49059 44398 314
10809 2232 262
15379 42354 324
12162 39831 324
25749 49367 324
40044 30706 324
18104 49011 324
4157 24748 282
9691 14167 276
2962 4955 238
20961 47200 324
14521 48040 324
10955 42771 324
37120 35913 262
17482 19296 279
19462 15963 279
11496 17240 276
12207 5648 268
47294 9020 324
25744 28688 308
41432 43435 288
46044 43073 314
26969 19333 308
37014 1195 324
7532 22886 279
10124 34829 311
21176 31531 308
5917 29862 308
41449 49282 314
3707 9625 262
40808 8169 324
30390 5184 308
15799 7805 276
16359 37829 324
15529 36226 324
34421 4684 311
32300 4198 308
15303 48786 324
45724 37182 314
7790 49425 324
23063 17181 279
34229 16324 308
14519 37149 324
34553 40905 324
8112 14782 276
25483 42801 324
43799 3612 324
1500 5378 238
14423 31255 308
