821220 106021 509
176178 598881 470
840958 424639 525
950229 800221 525
435016 114655 449
418171 736871 509
693920 341060 509
212803 213363 311
675717 229885 509
245571 475479 449
502614 509271 382
411724 129852 449
519847 40952 470
152707 375527 443
846159 838614 401
526429 374119 470
617443 927760 525
603851 773065 509
938748 936876 445
262522 95151 443
110464 970400 525
740027 553484 509
543501 887855 525
900902 482470 525
175800 479087 449
8782 304085 443
704802 57794 509
380522 659063 509
888179 79537 525
371028 786668 509
740635 213857 509
366522 787594 509
329929 616619 470
35160 876816 525
130398 642886 509
990494 545930 525
47409 928533 525
718224 500356 509
268540 592057 470
147761 913712 525
991032 765628 525
580520 929025 525
967425 940061 414
705548 403447 509
442612 829958 509
68014 968297 525
842253 318385 525
210084 773368 509
170679 9888 383
569854 258149 470
780724 142739 509
499521 396922 449
89670 688982 509
883887 106212 525
768873 413427 509
449654 664249 509
930401 500759 525
546485 730763 509
246439 37620 443
504685 369235 449
374241 597426 470
898399 910977 476
9778 84089 351
239900 434046 449
264269 608700 470
803032 575197 509
546799 744971 509
62318 606800 470
448629 658092 509
500919 867527 525
492286 217108 449
717504 231384 509
214068 413408 449
556552 854642 525
69194 631533 509
283290 676350 509
3798 417748 449
289184 113312 443
942657 934935 507
219841 299282 443
727714 753367 424
867619 927413 476
551753 408813 470
430133 537421 470
182799 861278 525
944651 605220 525
268891 18771 443
293876 105667 443
646420 988860 525
882610 519431 525
4857 216737 386
83417 797725 509
296455 197142 443
153210 486063 449
494000 336266 449
493198 684908 509
853151 441826 525
719465 630488 504
333401 118879 443
607182 566498 434
489355 285677 449
180401 788746 509
583399 783597 509
889572 584567 525
251433 719748 509
337493 128331 443
430069 165526 449
378496 180668 443
935337 605024 525
398767 979362 525
791265 24932 509
147110 455302 449
247012 150782 443
947814 947488 264
539935 764302 509
832708 708149 468
737036 836778 468
856451 592023 525
741327 351205 509
25439 176835 383
826511 318126 509
88105 703107 509
790134 149403 509
3175 981852 525
676587 81318 509
830722 463584 509
567520 343228 470
332832 177953 443
457779 510854 444
380922 334495 441
983922 570966 525
542052 38535 470
936187 214125 525
814169 749097 468
508682 647417 509
50554 913040 525
984466 902970 507
761833 760710 300
529890 700029 509
238373 931433 525
247984 194084 443
187699 919112 525
125908 946692 525
603109 152498 470
692525 89642 509
640237 268270 509
491877 491074 320
282231 990809 525
137717 871424 525
873441 691979 525
459779 789480 509
874590 994267 507
840263 444198 525
221611 892255 525
586316 634339 509
658221 905686 525
543441 546065 359
748530 794793 468
895784 349361 525
88964 791627 509
238103 200438 443
331111 492639 449
729948 890387 525
57470 611244 470
415159 440250 418
143613 925572 525
773021 769433 393
614354 311541 470
544255 55493 470
482154 869797 525
493014 465199 426
927779 284234 525
381128 393717 436
745734 995111 525
699017 218044 509
609821 135055 470
492330 898542 525
746851 770963 468
222860 787602 509
56259 652972 509
713221 678430 504
719502 252756 509
122663 287515 443
552698 150776 470
839571 454929 525
941616 528613 525
38153 301788 443
443700 156420 449
303195 735276 509
955692 800575 525
815299 382729 509
258546 959438 525
506380 455154 444
281536 483553 449
7117 593738 470
837336 871409 525
36919 492091 449
73544 60987 330
592726 190143 470
483236 413867 444
610739 846247 525
682252 360032 509
523217 62935 470
294197 732486 509
225886 38735 386
730394 599169 509
50500 995657 525
555578 659422 509
431377 728870 509
695078 324339 509
131652 598826 470
484167 16493 449
695543 633026 442
398571 154097 443
98418 158497 383
915748 25236 525
105447 988893 525
161214 850112 525
822549 150533 509
37212 688407 509
268677 162401 443
154793 178814 383
813146 228503 509
428539 249646 449
861976 437151 525
637497 760666 504
107656 44718 354
709993 597324 509
308911 162614 443
50477 804834 509
583807 121994 470
904749 427265 525
387039 829217 509
753646 288053 509
642463 55231 509
462911 418444 444
587291 48516 470
391628 69752 443
635975 969022 525
190329 968645 525
71060 416242 449
393735 273717 441
409200 478539 449
2304 359863 443
590805 754689 509
957336 905348 507
166833 209834 373
819622 930080 525
742629 636682 504
345401 830400 509
838050 775641 525
35934 912312 525
173967 237716 443
946334 213960 525
826636 362958 509
389918 140882 443
470574 191020 449
759524 16708 509
514666 682827 509
367173 13143 443
33932 953970 525
166873 80242 383
705384 637358 504
393343 999901 525
508159 900843 525
948205 95263 525
868059 580244 525
888895 374613 525
